Text analysis 📃
…
---

## What is tidy text?

```r
text_df <- tibble(line = 1:7, text = text)

text_df
```

```
## # A tibble: 7 x 2
##    line text                                  
##   <int> <chr>                                 
## 1     1 Take me out tonight                   
## 2     2 Where there's music and there's people
## 3     3 And they're young and alive           
## 4     4 Driving in your car                   
## 5     5 I never never want to go home         
## 6     6 Because I haven't got one             
## # ... with 1 more row
```

---

## What is tidy text?

```r
text_df %>%
  unnest_tokens(word, text)
```

```
## # A tibble: 32 x 2
##    line word   
##   <int> <chr>  
## 1     1 take   
## 2     1 me     
## 3     1 out    
## 4     1 tonight
## 5     2 where  
## 6     2 there's
## # ... with 26 more rows
```
…
---

## From the "Getting to know you" survey

> "What are your 3 - 5 most favorite songs right now?"

.midi[

```r
listening <- read_csv("data/listening.csv")
listening
```

```
## # A tibble: 104 x 1
##   songs                                                          
##   <chr>                                                          
## 1 Gamma Knife - King Gizzard and the Lizard Wizard; Self Immolat~
## 2 I dont listen to much music                                    
## 3 Mess by Ed Sheeran, Take me back to london by Ed Sheeran and S~
## 4 Hate Me (Sometimes) - Stand Atlantic; Edge of Seventeen - Stev~
## 5 whistle, gogobebe, sassy me                                    
## 6 Shofukan, Think twice, Padiddle                                
## # ... with 98 more rows
```
…
---

## Looking for commonalities

.midi[

```r
listening %>%
  unnest_tokens(word, songs) %>%
  count(word, sort = TRUE)
```

```
## # A tibble: 786 x 2
##   word      n
##   <chr> <int>
## 1 the      56
## 2 by       23
## 3 to       20
## 4 and      19
## 5 i        19
## 6 you      15
## # ... with 780 more rows
```
…
## Stop words

- In computing, stop words are words which are filtered out before or after processing of natural language data (text).
- They usually refer to the most common words in a language, but there is not a single list of stop words used by all natural language processing tools.

---

## English stop words

```r
get_stopwords()
```

```
## # A tibble: 175 x 2
##   word   lexicon 
##   <chr>  <chr>   
## 1 i      snowball
## 2 me     snowball
## 3 my     snowball
## 4 myself snowball
## 5 we     snowball
## 6 our    snowball
## # ... with 169 more rows
```

---

## Spanish stop words

```r
get_stopwords(language = "es")
```

```
## # A tibble: 308 x 2
##   word  lexicon 
##   <chr> <chr>   
## 1 de    snowball
## 2 la    snowball
## 3 que   snowball
## 4 el    snowball
## 5 en    snowball
## 6 y     snowball
## # ... with 302 more rows
```

---

## Various lexicons

See `?get_stopwords` for more info.

.midi[

```r
get_stopwords(source = "smart")
```

```
## # A tibble: 571 x 2
##   word      lexicon
##   <chr>     <chr>  
## 1 a         smart  
## 2 a's       smart  
## 3 able      smart  
## 4 about     smart  
## 5 above     smart  
## 6 according smart  
## # ... with 565 more rows
```
…
## Back to: Looking for commonalities

.small[

```r
listening %>%
  unnest_tokens(word, songs) %>%
* anti_join(stop_words) %>%
* filter(!(word %in% c("1", "2", "3", "4", "5"))) %>%
  count(word, sort = TRUE)
```

```
## # A tibble: 640 x 2
##   word        n
##   <chr>   <int>
## 1 ed          7
## 2 queen       7
## 3 sheeran     7
## 4 love        6
## 5 bad         5
## 6 time        5
## # ... with 634 more rows
```
…
```r
top20_songs %>%
  arrange(desc(n))
```

```
## # A tibble: 41 x 2
##   word        n
##   <chr>   <int>
## 1 ed          7
## 2 queen       7
## 3 sheeran     7
## 4 love        6
## 5 bad         5
## 6 time        5
## # ... with 35 more rows
```
…
