Text Analysis: TF_IDF and Sentimental Analysis
…
---

## What is tidy text?

```r
text_df %>%
  unnest_tokens(word, text) %>%
  print(n = 10)
```

```
## # A tibble: 80 x 2
##     line word 
##    <int> <chr>
##  1     1 oh   
##  2     1 get  
##  3     1 me   
##  4     1 away 
##  5     1 from 
##  6     1 here 
##  7     1 i'm  
##  8     1 dying
##  9     2 play 
## 10     2 me   
## # i 70 more rows
```
…
---

class: middle

# Case study: term frequency in Jane Austen's novels

---

## What are the most commonly used words in Jane Austen's novels?

.panelset[
.panel[.panel-name[Output]

```
## # A tibble: 40,379 x 4
##   book           word      n  total
##   <fct>          <chr> <int>  <int>
## 1 Mansfield Park the    6206 160460
## 2 Mansfield Park to     5475 160460
## 3 Mansfield Park and    5438 160460
## 4 Emma           to     5239 160996
## 5 Emma           the    5201 160996
## 6 Emma           and    4896 160996
## # i 40,373 more rows
```
…
```
## Warning: Removed 6 rows containing missing values
## (`geom_bar()`).
```

]
]

---

.panelset[
.panel[.panel-name[Output]

```
## # A tibble: 40,379 x 6
##   book           word      n  total  rank `term frequency`
##   <fct>          <chr> <int>  <int> <int>            <dbl>
## 1 Mansfield Park the    6206 160460     1           0.0387
## 2 Mansfield Park to     5475 160460     2           0.0341
## 3 Mansfield Park and    5438 160460     3           0.0339
## 4 Emma           to     5239 160996     1           0.0325
## 5 Emma           the    5201 160996     2           0.0323
## 6 Emma           and    4896 160996     3           0.0304
## # i 40,373 more rows
```
…
  - `term`: token (e.g., word).
  
  - `document`: book in this case.
  
  - `n`: how many times each document contains each term.

---

## tf_idf

.panelset[
.panel[.panel-name[Output]

```
## # A tibble: 40,379 x 7
##   book           word      n  total     tf   idf tf_idf
##   <fct>          <chr> <int>  <int>  <dbl> <dbl>  <dbl>
## 1 Mansfield Park the    6206 160460 0.0387     0      0
## 2 Mansfield Park to     5475 160460 0.0341     0      0
## 3 Mansfield Park and    5438 160460 0.0339     0      0
## 4 Emma           to     5239 160996 0.0325     0      0
## 5 Emma           the    5201 160996 0.0323     0      0
## 6 Emma           and    4896 160996 0.0304     0      0
## # i 40,373 more rows
```
…
physics <- gutenberg_download(c(37729, 14725, 13476, 30155),
  meta_fields = "author"
)
```

---

## How many times each word was used in each text of the authors?

.panelset[
.panel[.panel-name[Output]

```
## # A tibble: 12,671 x 3
##   author              word      n
##   <chr>               <chr> <int>
## 1 Galilei, Galileo    the    3760
## 2 Tesla, Nikola       the    3604
## 3 Huygens, Christiaan the    3553
## 4 Einstein, Albert    the    2993
## 5 Galilei, Galileo    of     2049
## 6 Einstein, Albert    of     2028
## # i 12,665 more rows
```
…
physics_words
```

]
]

---

## Highest tf_idf words in each physics texts

.panelset[
.panel[.panel-name[Output]

```
## # A tibble: 12,671 x 6
##   author              word      n     tf   idf tf_idf
##   <fct>               <chr> <int>  <dbl> <dbl>  <dbl>
## 1 Galilei, Galileo    the    3760 0.0935     0      0
## 2 Tesla, Nikola       the    3604 0.0913     0      0
## 3 Huygens, Christiaan the    3553 0.0928     0      0
## 4 Einstein, Albert    the    2993 0.0952     0      0
## 5 Galilei, Galileo    of     2049 0.0510     0      0
## 6 Einstein, Albert    of     2028 0.0645     0      0
## # i 12,665 more rows
```
…
]
]

---

## Text cleaning

```r
physics %>%
  filter(str_detect(text, "_k_")) %>%
  select(text)
```

```
## # A tibble: 7 x 1
##   text                                                           
##   <chr>                                                          
## 1 surface AB at the points AK_k_B. Then instead of the hemispher~
## 2 would needs be that from all the other points K_k_B there shou~
## 3 necessarily be equal to CD, because C_k_ is equal to CK, and C~
## 4 the crystal at K_k_, all the points of the wave CO_oc_ will ha~
## 5 O_o_ has reached K_k_. Which is easy to comprehend, since, of ~
## 6 CO_oc_ in the crystal, when O_o_ has arrived at K_k_, because ~
## # i 1 more row
```

---

## Text cleaning

```r
physics %>%
  filter(str_detect(text, "RC")) %>%
  select(text)
```

```
## # A tibble: 44 x 1
##   text                                                           
##   <chr>                                                          
## 1 line RC, parallel and equal to AB, to be a portion of a wave o~
## 2 represents the partial wave coming from the point A, after the~
## 3 be the propagation of the wave RC which fell on AB, and would ~
## 4 transparent body; seeing that the wave RC, having come to the ~
## 5 incident rays. Let there be such a ray RC falling upon the sur~
## 6 CK. Make CO perpendicular to RC, and across the angle KCO adju~
## # i 38 more rows
```
…
## Text cleaning: custom stop_words dictionary

```r
mystopwords <- tibble(word = c(
  "eq", "co", "rc", "ac", "ak", "bn",
  "fig", "file", "cg", "cb", "cm",
  "ab", "_k", "_k_", "_x"
))

mystopwords
```

```
## # A tibble: 15 x 1
##   word 
##   <chr>
## 1 eq   
## 2 co   
## 3 rc   
## 4 ac   
## 5 ak   
## 6 bn   
## # i 9 more rows
```

```r
physics_words <- anti_join(physics_words, mystopwords,
  by = "word"
)

physics_words
```

```
## # A tibble: 12,655 x 3
##   author              word      n
##   <chr>               <chr> <int>
## 1 Galilei, Galileo    the    3760
## 2 Tesla, Nikola       the    3604
## 3 Huygens, Christiaan the    3553
## 4 Einstein, Albert    the    2993
## 5 Galilei, Galileo    of     2049
## 6 Einstein, Albert    of     2028
## # i 12,649 more rows
```

---

## Calculate tf_idf again

.panelset[
.panel[.panel-name[Output]

```
## # A tibble: 63 x 6
##   author           word              n      tf   idf  tf_idf
##   <fct>            <fct>         <int>   <dbl> <dbl>   <dbl>
## 1 Einstein, Albert relativity      193 0.00620 1.39  0.00860
## 2 Einstein, Albert theory          181 0.00582 0.693 0.00403
## 3 Einstein, Albert gravitational    87 0.00280 1.39  0.00388
## 4 Einstein, Albert ordinates        65 0.00209 1.39  0.00290
## 5 Einstein, Albert ordinate         60 0.00193 1.39  0.00267
## 6 Einstein, Albert system          108 0.00347 0.693 0.00241
## # i 57 more rows
```
…
---

## Sentiment lexicons: afinn

```r
library(tidytext)

get_sentiments("afinn")
```

```
## # A tibble: 2,477 x 2
##   word       value
##   <chr>      <dbl>
## 1 abandon       -2
## 2 abandoned     -2
## 3 abandons      -2
## 4 abducted      -2
## 5 abduction     -2
## 6 abductions    -2
## # i 2,471 more rows
```

---

## Sentiment lexicons: bing

```r
get_sentiments("bing")
```

```
## # A tibble: 6,786 x 2
##   word       sentiment
##   <chr>      <chr>    
## 1 2-faces    negative 
## 2 abnormal   negative 
## 3 abolish    negative 
## 4 abominable negative 
## 5 abominably negative 
## 6 abominate  negative 
## # i 6,780 more rows
```

---

## Sentiment lexicons: nrc

```r
get_sentiments("nrc")
```

```
## # A tibble: 13,875 x 2
##   word      sentiment
##   <chr>     <chr>    
## 1 abacus    trust    
## 2 abandon   fear     
## 3 abandon   negative 
## 4 abandon   sadness  
## 5 abandoned anger    
## 6 abandoned fear     
## # i 13,869 more rows
```
---

class: middle

# Case study: sentiment analysis for Jane Austen's books

---

## Preparing data

.panelset[
.panel[.panel-name[Output]

```
## # A tibble: 725,055 x 4
##   book                linenumber chapter word       
##   <fct>                    <int>   <int> <chr>      
## 1 Sense & Sensibility          1       0 sense      
## 2 Sense & Sensibility          1       0 and        
## 3 Sense & Sensibility          1       0 sensibility
## 4 Sense & Sensibility          3       0 by         
## 5 Sense & Sensibility          3       0 jane       
## 6 Sense & Sensibility          3       0 austen     
## # i 725,049 more rows
```
…
tidy_books
```

]
]

---

## Joining sentiments

.panelset[
.panel[.panel-name[Output]

```
## # A tibble: 920 x 5
##   book                index negative positive sentiment
##   <fct>               <dbl>    <int>    <int>     <int>
## 1 Sense & Sensibility     0       16       32        16
## 2 Sense & Sensibility     1       19       53        34
## 3 Sense & Sensibility     2       12       31        19
## 4 Sense & Sensibility     3       15       31        16
## 5 Sense & Sensibility     4       16       34        18
## 6 Sense & Sensibility     5       16       51        35
## # i 914 more rows
```
…
