Text Analysis: Regular Expressions
…
---

## Example

```r
library(tidyverse)

*text <- c("is407", "a", "H2O", "cat", "Cat", "cats", "the cat", "123", "111", "11111", "jonathan", "johnathan")
df <- tibble(text)

df
```

```
## # A tibble: 12 x 1
##   text 
##   <chr>
## 1 is407
## 2 a    
## 3 H2O  
## 4 cat  
## 5 Cat  
## 6 cats 
## # ... with 6 more rows
```
…
## Filter all the alphabetic characters?

```r
df %>%
  filter(
    str_detect(
      text,
*     "[abcdefghijklmnopqrstuvwxyzABCDEFGHIJKLMNOPQRSTUVWXYZ]"
    )
  )
```

```
## # A tibble: 9 x 1
##   text 
##   <chr>
## 1 is407
## 2 a    
## 3 H2O  
## 4 cat  
## 5 Cat  
## 6 cats 
## # ... with 3 more rows
```
…
### Shorten using dash

```r
df %>%
  filter(
    str_detect(
      text,
*     "[a-zA-Z]"
    )
  )
```

```
## # A tibble: 9 x 1
##   text 
##   <chr>
## 1 is407
## 2 a    
## 3 H2O  
## 4 cat  
## 5 Cat  
## 6 cats 
## # ... with 3 more rows
```
…
### Don't want to include "is407"

```r
df %>%
  filter(
    str_detect(
      text,
*     "[a-zA-Z]$"
    )
  )
```

```
## # A tibble: 8 x 1
##   text   
##   <chr>  
## 1 a      
## 2 H2O    
## 3 cat    
## 4 Cat    
## 5 cats   
## 6 the cat
## # ... with 2 more rows
```
…
