Text analysis: Frequency
…
---

## What is tidy text?

```r
text_df %>%
  unnest_tokens(word, text) %>%
  print(n = 10)
```

```
## # A tibble: 80 x 2
##     line word 
##    <int> <chr>
##  1     1 oh   
##  2     1 get  
##  3     1 me   
##  4     1 away 
##  5     1 from 
##  6     1 here 
##  7     1 i'm  
##  8     1 dying
##  9     2 play 
## 10     2 me   
## # i 70 more rows
```
…
original_books
```

```
## # A tibble: 73,422 x 4
##   text                    book                linenumber chapter
##   <chr>                   <fct>                    <int>   <int>
## 1 "SENSE AND SENSIBILITY" Sense & Sensibility          1       0
## 2 ""                      Sense & Sensibility          2       0
## 3 "by Jane Austen"        Sense & Sensibility          3       0
## 4 ""                      Sense & Sensibility          4       0
## 5 "(1811)"                Sense & Sensibility          5       0
## 6 ""                      Sense & Sensibility          6       0
## # i 73,416 more rows
```

---

## Tokenization

```r
tidy_books <- original_books %>%
  unnest_tokens(word, text)

tidy_books
```

```
## # A tibble: 725,055 x 4
##   book                linenumber chapter word       
##   <fct>                    <int>   <int> <chr>      
## 1 Sense & Sensibility          1       0 sense      
## 2 Sense & Sensibility          1       0 and        
## 3 Sense & Sensibility          1       0 sensibility
## 4 Sense & Sensibility          3       0 by         
## 5 Sense & Sensibility          3       0 jane       
## 6 Sense & Sensibility          3       0 austen     
## # i 725,049 more rows
```

---

## Word count

```r
tidy_books %>%
  count(word, sort = TRUE)
```

```
## # A tibble: 14,520 x 2
##   word      n
##   <chr> <int>
## 1 the   26351
## 2 to    24044
## 3 and   22515
## 4 of    21178
## 5 a     13408
## 6 her   13055
## # i 14,514 more rows
```

---

## Stopwords

```r
stop_words
```

```
## # A tibble: 1,149 x 2
##   word      lexicon
##   <chr>     <chr>  
## 1 a         SMART  
## 2 a's       SMART  
## 3 able      SMART  
## 4 about     SMART  
## 5 above     SMART  
## 6 according SMART  
## # i 1,143 more rows
```
…
---

## Word count: The most common words in all the books as a whole

```r
tidy_books %>%
  count(word, sort = TRUE)
```

```
## # A tibble: 13,914 x 2
##   word      n
##   <chr> <int>
## 1 miss   1855
## 2 time   1337
## 3 fanny   862
## 4 dear    822
## 5 lady    817
## 6 sir     806
## # i 13,908 more rows
```
…
---

## The most common words in these novels of H.G. Wells?

```r
tidy_hgwells %>%
  count(word, sort = TRUE)
```

```
## # A tibble: 11,811 x 2
##   word       n
##   <chr>  <int>
## 1 time     461
## 2 people   302
## 3 door     260
## 4 heard    249
## 5 black    232
## 6 stood    229
## # i 11,805 more rows
```
…
---

## The most common words in these novels of the Brontë sisters?

```r
tidy_bronte %>%
  count(word, sort = TRUE)
```

```
## # A tibble: 23,297 x 2
##   word      n
##   <chr> <int>
## 1 time   1065
## 2 miss    854
## 3 day     825
## 4 hand    767
## 5 eyes    714
## 6 don’t   666
## # i 23,291 more rows
```

---

## Compare the frequency for each word for the works of Jane Austen, the Brontë sisters, and H.G. Wells 

.panelset[
.panel[.panel-name[Output]

```
## # A tibble: 57,116 x 4
##   word  `Jane Austen` author          proportion
##   <chr>         <dbl> <chr>                <dbl>
## 1 a        0.00000919 Brontë Sisters  0.0000587 
## 2 a        0.00000919 H.G. Wells      0.0000147 
## 3 aback   NA          Brontë Sisters  0.00000391
## 4 aback   NA          H.G. Wells      0.0000147 
## 5 abaht   NA          Brontë Sisters  0.00000391
## 6 abaht   NA          H.G. Wells     NA         
## # i 57,110 more rows
```
…
